{
  "version": 1,
  "projects": {
    "betbull-mobile": {
      "root": "apps/betbull-mobile",
      "sourceRoot": "apps/betbull-mobile",
      "projectType": "application",
      "schematics": {},
      "architect": {
        "build": {
          "builder": "@nrwl/next:build",
          "options": {
            "root": "apps/betbull-mobile",
            "outputPath": "dist/apps/betbull-mobile"
          },
          "configurations": {
            "production": {
              "fileReplacements": [
                {
                  "replace": "apps/betbull-mobile/environments/environment.ts",
                  "with": "apps/betbull-mobile/environments/environment.prod.ts"
                }
              ]
            }
          }
        },
        "serve": {
          "builder": "@nrwl/next:dev-server",
          "options": {
            "buildTarget": "betbull-mobile:build",
            "dev": true
          },
          "configurations": {
            "production": {
              "buildTarget": "betbull-mobile:build:production",
              "dev": false
            }
          }
        },
        "export": {
          "builder": "@nrwl/next:export",
          "options": {
            "buildTarget": "betbull-mobile:build:production"
          }
        },
        "lint": {
          "builder": "@nrwl/linter:lint",
          "options": {
            "linter": "eslint",
            "config": "apps/betbull-mobile/.eslintrc",
            "tsConfig": [
              "apps/betbull-mobile/tsconfig.json",
              "apps/betbull-mobile/tsconfig.spec.json"
            ],
            "exclude": ["**/node_modules/**", "!apps/betbull-mobile/**"]
          }
        },
        "test": {
          "builder": "@nrwl/jest:jest",
          "options": {
            "jestConfig": "apps/betbull-mobile/jest.config.js",
            "tsConfig": "apps/betbull-mobile/tsconfig.spec.json",
            "passWithNoTests": true
          }
        }
      }
    },
    "betbull-mobile-e2e": {
      "root": "apps/betbull-mobile-e2e",
      "sourceRoot": "apps/betbull-mobile-e2e/src",
      "projectType": "application",
      "architect": {
        "e2e": {
          "builder": "@nrwl/cypress:cypress",
          "options": {
            "cypressConfig": "apps/betbull-mobile-e2e/cypress.json",
            "tsConfig": "apps/betbull-mobile-e2e/tsconfig.e2e.json",
            "devServerTarget": "betbull-mobile:serve"
          },
          "configurations": {
            "production": {
              "devServerTarget": "betbull-mobile:serve:production"
            }
          }
        },
        "lint": {
          "builder": "@nrwl/linter:lint",
          "options": {
            "linter": "eslint",
            "config": "apps/betbull-mobile-e2e/.eslintrc",
            "tsConfig": ["apps/betbull-mobile-e2e/tsconfig.e2e.json"],
            "exclude": ["**/node_modules/**", "!apps/betbull-mobile-e2e/**"]
          }
        }
      }
    },
    "betbull-desktop": {
      "root": "apps/betbull-desktop",
      "sourceRoot": "apps/betbull-desktop",
      "projectType": "application",
      "schematics": {},
      "architect": {
        "build": {
          "builder": "@nrwl/next:build",
          "options": {
            "root": "apps/betbull-desktop",
            "outputPath": "dist/apps/betbull-desktop"
          },
          "configurations": {
            "production": {
              "fileReplacements": [
                {
                  "replace": "apps/betbull-desktop/environments/environment.ts",
                  "with": "apps/betbull-desktop/environments/environment.prod.ts"
                }
              ]
            }
          }
        },
        "serve": {
          "builder": "@nrwl/next:dev-server",
          "options": {
            "buildTarget": "betbull-desktop:build",
            "dev": true
          },
          "configurations": {
            "production": {
              "buildTarget": "betbull-desktop:build:production",
              "dev": false
            }
          }
        },
        "export": {
          "builder": "@nrwl/next:export",
          "options": {
            "buildTarget": "betbull-desktop:build:production"
          }
        },
        "lint": {
          "builder": "@nrwl/linter:lint",
          "options": {
            "linter": "eslint",
            "config": "apps/betbull-desktop/.eslintrc",
            "tsConfig": [
              "apps/betbull-desktop/tsconfig.json",
              "apps/betbull-desktop/tsconfig.spec.json"
            ],
            "exclude": ["**/node_modules/**", "!apps/betbull-desktop/**"]
          }
        },
        "test": {
          "builder": "@nrwl/jest:jest",
          "options": {
            "jestConfig": "apps/betbull-desktop/jest.config.js",
            "tsConfig": "apps/betbull-desktop/tsconfig.spec.json",
            "passWithNoTests": true
          }
        }
      }
    },
    "betbull-desktop-e2e": {
      "root": "apps/betbull-desktop-e2e",
      "sourceRoot": "apps/betbull-desktop-e2e/src",
      "projectType": "application",
      "architect": {
        "e2e": {
          "builder": "@nrwl/cypress:cypress",
          "options": {
            "cypressConfig": "apps/betbull-desktop-e2e/cypress.json",
            "tsConfig": "apps/betbull-desktop-e2e/tsconfig.e2e.json",
            "devServerTarget": "betbull-desktop:serve"
          },
          "configurations": {
            "production": {
              "devServerTarget": "betbull-desktop:serve:production"
            }
          }
        },
        "lint": {
          "builder": "@nrwl/linter:lint",
          "options": {
            "linter": "eslint",
            "config": "apps/betbull-desktop-e2e/.eslintrc",
            "tsConfig": ["apps/betbull-desktop-e2e/tsconfig.e2e.json"],
            "exclude": ["**/node_modules/**", "!apps/betbull-desktop-e2e/**"]
          }
        }
      }
    },
    "shared-components": {
      "root": "libs/shared-components",
      "sourceRoot": "libs/shared-components/src",
      "projectType": "library",
      "schematics": {},
      "architect": {
        "lint": {
          "builder": "@angular-devkit/build-angular:tslint",
          "options": {
            "tsConfig": [
              "libs/shared-components/tsconfig.lib.json",
              "libs/shared-components/tsconfig.spec.json"
            ],
            "exclude": ["**/node_modules/**", "!libs/shared-components/**"]
          }
        },
        "test": {
          "builder": "@nrwl/jest:jest",
          "options": {
            "jestConfig": "libs/shared-components/jest.config.js",
            "tsConfig": "libs/shared-components/tsconfig.spec.json",
            "passWithNoTests": true
          }
        }
      }
    }
  },
  "cli": {
    "defaultCollection": "@nrwl/next"
  },
  "schematics": {
    "@nrwl/workspace": {
      "library": {
        "linter": "eslint"
      }
    },
    "@nrwl/cypress": {
      "cypress-project": {
        "linter": "eslint"
      }
    },
    "@nrwl/react": {
      "application": {
        "linter": "eslint",
        "babel": true
      }
    },
    "@nrwl/next": {
      "application": {
        "style": "scss",
        "linter": "eslint"
      }
    },
    "@nrwl/web": {
      "application": {
        "linter": "eslint"
      }
    },
    "@nrwl/node": {
      "application": {
        "linter": "eslint"
      },
      "library": {
        "linter": "eslint"
      }
    },
    "@nrwl/nx-plugin": {
      "plugin": {
        "linter": "eslint"
      }
    },
    "@nrwl/nest": {
      "application": {
        "linter": "eslint"
      }
    },
    "@nrwl/express": {
      "application": {
        "linter": "eslint"
      },
      "library": {
        "linter": "eslint"
      }
    }
  },
  "defaultProject": "betbull-mobile"
}
